Differential abundance test — amp_diffabund • ampvis2
…
#Or show raw results
results$Clean_results
#> # A tibble: 1,056 x 5
#> # Groups:   Taxonomy, padj [1,056]
#>    Taxonomy                         padj Log2FC Aalborg_East Aalborg_West
#>    <chr>                           <dbl>  <dbl>        <dbl>        <dbl>
#>  1 o__AKYG1722_OTU_154          2.10e-83   11          0.001        2.73 
#>  2 f__Caldilineaceae_OTU_330    5.50e-79    3.6        0.039        0.353
#>  3 f__Caldilineaceae_OTU_322    1.70e-42    6.7        0.002        0.256
#>  4 f__mle1-48_OTU_467           2.20e-34    2.9        0.027        0.136
#>  5 f__Microbacteriaceae_OTU_640 3.40e-33   -3          0.178        0.015
#>  6 o__Micrococcales_OTU_10052   1.00e-32    2.9        0.049        0.246
#>  7 Actinomyces                  3.20e-32   -1.8        0.734        0.146
#>  8 Illumatobacter               5.80e-29    2.5        0.029        0.114
#>  9 c__Actinobacteria_OTU_297    7.70e-28    4.4        0.011        0.186
#> 10 f__Caldilineaceae_OTU_1753   1.10e-27    5.4        0            0.062
#> # ... with 1,046 more rows
…
